CUSTOM = $DFF000

VPOSR   = $4    ; Y Raster Position Bit 9
VHPOSR = $6     ; Raster XY Position

COP1LCH = $80
COPJMP = $88

DIWSTRT = $8E ; Display window Pos
DIWSTOP = $90
DDFSTRT = $92 ; Display Bitplane Pos
DDFSTOP = $94

DMACON = $96

INTENA = $9a
INTREQ = $9c

BPL1PTH = $E0
BPL1PTL = $E2

BPLCON0 = $100
BPLCON1 = $102
BPLCON2 = $104
BPLCON3 = $106
BPL1MOD = $108
BPL2MOD = $10A

SPR0PTH = $120
SPR0PTL = $122
SPR1PTH = $124
SPR1PTL = $126
SPR2PTH = $128
SPR2PTL = $12A
SPR3PTH = $12C
SPR3PTL = $12E
SPR4PTH = $130
SPR4PTL = $132
SPR5PTH = $134
SPR5PTL = $136
SPR6PTH = $138
SPR6PTL = $13A
SPR7PTH = $13C
SPR7PTL = $13E
SPR0POS = $140
SPR0CTL = $142
SPR0DATA = $144
SPR0DATB = $146

COLOR00 = $180
COLOR01 = $182
COLOR02 = $184
COLOR03 = $186
COLOR04 = $188
COLOR05 = $18A
COLOR06 = $18C
COLOR07 = $18E
COLOR08 = $190
COLOR09 = $192
COLOR10 = $194
COLOR11 = $196
COLOR12 = $198
COLOR13 = $19A
COLOR14 = $19C
COLOR15 = $19E
COLOR16 = $1A0
COLOR17 = $1A2
COLOR18 = $1A4
COLOR19 = $1A6
COLOR20 = $1A8
COLOR21 = $1AA
COLOR22 = $1AC
COLOR23 = $1AE
COLOR24 = $1B0
COLOR25 = $1B2
COLOR26 = $1B4
COLOR27 = $1B6
COLOR28 = $1B8
COLOR29 = $1BA
COLOR30 = $1BC
COLOR31 = $1BE

; Mouse Register
CIAAPRA = $BFE001

; DMACON macros
DMAF_SETCLR = $8000
DMAF_AUDIO = $000F      ; 4 bit mask
DMAF_AUD0 = $0001
DMAF_AUD1 = $0002
DMAF_AUD2 = $0004
DMAF_AUD3 = $0008
DMAF_DISK = $0010
DMAF_SPRITE = $0020
DMAF_BLITTER = $0040
DMAF_COPPER = $0080
DMAF_RASTER = $0100
DMAF_MASTER = $0200
DMAF_BLITHOG = $0400
DMAF_ALL = $01FF        ; All DMA channels

; Exec Library Base Offset
OpenLibrary     = -30-522
Forbid          = -30-102
Permit          = -30-108
AllocMem        = -30-168
FreeMem         = -30-180

OldOpenLibrary  = -408
CloseLibrary    = -414

; Graphics base
InitCopperList       = 38    ; Original Copper Pointer
; (Originally "StartList")

; Other

Execbase        = 4
